C:\Users\Seba\anaconda3\envs\fairtronics\python.exe C:\Users\Seba\PycharmProjects\engine\tests\test.py C:\Users\Seba\PycharmProjects\orga\pocs\data\full
Starting at 2022-10-16 11:14
Read database C:\Users\Seba\PycharmProjects\orga\pocs\data\full
-------------------------------------------------------------------
Parts level of device in device 'MNT Reform 2.0 Laptop':
 rank    amount  unit    share                  name
    1 1699.7236 items 100.0000 MNT Reform 2.0 Laptop
-------------------------------------------------------------------
Materials level of device in device 'MNT Reform 2.0 Laptop':
 rank    amount unit    share                  name
    1 2195.5698    g 100.0000 MNT Reform 2.0 Laptop
-------------------------------------------------------------------
Resources level of device in device 'MNT Reform 2.0 Laptop':
 rank     amount unit    share                  name
    1 84345.6250    g 100.0000 MNT Reform 2.0 Laptop
-------------------------------------------------------------------
Top 20 materials level of parts (aside other) in device 'MNT Reform 2.0 Laptop':
 rank   amount unit   share                                             name    part manufacturer             part category
    1 332.0000    g 15.1214 18650 - 1800mAh 3.2V - 5.4A Battery Cell LiFePO4      JGNE Goldencell Batteries and Accessories
    2 308.9590    g 14.0719                            Main Box Al6061 Black              Neuform                      Case
    3 252.7302    g 11.5109                                      Screen Back              Neuform                      Case
    4 194.1461    g  8.8426                                     Bottom Plate              Neuform                      Case
    5 117.9768    g  5.3734                                  Motherboard PCB               PCBWay    Printed Circuit Boards
    6 116.5160    g  5.3069                                     Keyboard PCB               PCBWay    Printed Circuit Boards
    7  85.6177    g  3.8996                                     Screen Front              Neuform                      Case
    8  77.5720    g  3.5331                                Choc Brown Switch                Kailh          Tactile Switches
    9  60.1773    g  2.7409               12.5 inch a-Si TFT-LCD - LCD glass              Innolux                  Displays
    9  60.1773    g  2.7409               12.5 inch a-Si TFT-LCD - LCD panel              Innolux                  Displays
   11  54.2818    g  2.4723                      Heatsink for Nitrogen8M SoM              Unknown                Heat Sinks
   12  48.2904    g  2.1994                                    FKcaps MBK 1U               FKcaps                  Key Caps
   13  43.0593    g  1.9612                                 Battery Pack PCB               PCBWay    Printed Circuit Boards
   14  41.2643    g  1.8794                                   Keyboard Frame              Neuform                      Case
   15  37.1183    g  1.6906                PVC-isolated 0.25mm2 copper cable              Unknown         Bulk Hook-up Wire
   16  34.6145    g  1.5766                               Stainless steel 1g              Unknown             Raw Materials
   17  25.9896    g  1.1837                PVC-isolated 0.14mm2 copper cable              Unknown         Bulk Hook-up Wire
   18  24.1602    g  1.1004                      Battery holder clip size AA Keystone Electronics Batteries and Accessories
   19  23.8386    g  1.0858                            Trackpad Holder (PLA)         MNT Research                      Case
   20  20.0000    g  0.9109                         Right Hinge SMS-ZZ-219-R               Smooth                      Case
   21 237.0804    g 10.7981                                            Other
-------------------------------------------------------------------
Top 50 materials (aside other) in device 'MNT Reform 2.0 Laptop':
 rank   amount unit   share                                      name                                material cas material classification material density g cm3
    1 742.8530    g 33.8342                      6061 Aluminium Alloy                                  12604-68-1                  metals                    2.7
    2 206.9074    g  9.4239                             Acrylic Glass                                   9011-14-7                plastics                   1.18
    3 187.8974    g  8.5580                                    Copper                                   7440-50-8                  metals                   8.96
    4  97.5388    g  4.4425                           Stainless Steel                                  65997-19-5                  metals                    7.5
    5  91.6382    g  4.1738                                 Aluminium                                   7429-90-5                  metals                    2.7
    6  75.0573    g  3.4186                    Lithium iron phosphate                                  15365-14-7
    7  72.6998    g  3.3112                                    Silica 7631-86-9;14808-60-7;60676-86-0;112926-00-8
    8  69.8185    g  3.1800                               Epoxy Resin                                                            plastics                    1.2
    9  60.1773    g  2.7409                                 LCD Glass                                                             glasses
   10  59.5771    g  2.7135                                  Graphite                                   7782-42-5
   11  58.6447    g  2.6710                                  Nylon 66                                  32131-17-2                plastics                   1.14
   12  57.9614    g  2.6399                                       ABS                                   9003-56-9                plastics                   1.07
   13  31.6006    g  1.4393                        Ethylene carbonate                                     96-49-1
   14  31.3982    g  1.4301                                      Iron                                   7439-89-6                  metals                  7.874
   15  29.9533    g  1.3643                     Tetrabromobisphenol A                                     79-94-7
   16  25.8009    g  1.1751                                       PET                                  25038-59-9                plastics                   1.38
   17  25.6031    g  1.1661                        Dimethyl carbonate                                    616-38-6
   18  24.4813    g  1.1150                                       PLA                                  26100-51-6                plastics                   1.23
   19  21.3713    g  0.9734                           Potassium Oxide                                  12136-45-7                ceramics
   20  20.6755    g  0.9417                         Organic Chemicals
   21  19.9868    g  0.9103                           Aluminium Oxide                                   1344-28-1                ceramics
   22  17.6442    g  0.8036                              Polyurethane                                   9009-54-5
   23  16.7702    g  0.7638                        Polyvinyl fluoride                                  24981-14-4
   24  14.4627    g  0.6587       Dipropylene Glycol Monomethyl Ether                                  34590-94-8
   25  13.5877    g  0.6189                      - Unknown Material -
   26   9.8827    g  0.4501                            Boron Trioxide                                   1303-86-2
   27   9.5513    g  0.4350                              Carbon Black                                   1333-86-4
   28   9.3346    g  0.4252                                       PVC                                   9002-86-2                plastics                   1.35
   29   8.6343    g  0.3933                                       Tin                                   7440-31-5                  metals                   7.31
   30   7.2797    g  0.3316               Lithium hexafluorophosphate                                  21324-40-3
   31   7.0063    g  0.3191                                Iron Oxide                                   1309-37-1
   32   6.5468    g  0.2982                             Polypropylene                                   9003-07-0
   33   5.8128    g  0.2648                           Magnesium Oxide                                   1309-48-4
   34   5.2751    g  0.2403                               Glass Fiber                                  65997-17-3
   35   4.3200    g  0.1968                          Neodymium Magnet                                                                                        7.5
   36   3.1819    g  0.1449                              Polyethylene                                   9002-88-4
   37   2.9949    g  0.1364 Polymer with Naphthalenedicarboxylic Acid                      86013-04-9;126710-21-2
   38   2.7554    g  0.1255                             Polycarbonate                       25037-45-0;24936-68-3                                           1.21
   39   2.7212    g  0.1239                    Liquid-Crystal Polymer                                                                                        1.4
   40   2.5830    g  0.1176                                     Brass                       86376-49-0;12597-71-6                  metals                    8.5
   41   2.4727    g  0.1126                                      Zinc                                   7440-66-6                  metals                   7.14
   42   2.3609    g  0.1075                                Zinc Oxide                                   1314-13-2
   43   2.1044    g  0.0958                                    Nickel                                   7440-02-0                  metals                  8.908
   44   1.8795    g  0.0856                           Barium Titanate                                  12047-27-7
   45   1.3106    g  0.0597          Polymer with Hydroxybenzoic Acid                     132699-78-6;147310-94-9
   46   1.2926    g  0.0589                        Vinylene carbonate                                    872-36-6
   47   1.2022    g  0.0548                             Ferrochromium                                  11114-46-8
   48   1.1722    g  0.0534                     Polyphenylene Sulfide                       25212-74-2;26062-94-2                plastics
   49   1.1699    g  0.0533                              Nickel Oxide                                   1313-99-1
   50   1.1450    g  0.0521                              Copper Oxide                                   1317-38-0
   51  17.4732    g  0.7958                                     Other
-------------------------------------------------------------------
Top 20 resources level of parts (aside other) in device 'MNT Reform 2.0 Laptop':
 rank     amount unit   share                                                  name part manufacturer                 part category
    1 11611.9678    g 13.7671                                       Motherboard PCB            PCBWay        Printed Circuit Boards
    2  9109.4375    g 10.8001                      Solder Paste Sn96.5Ag3Cu0.5 100g           Unknown  Soldering Supplies and Tools
    3  8949.3711    g 10.6104                                          Keyboard PCB            PCBWay        Printed Circuit Boards
    4  6419.8535    g  7.6114      18650 - 1800mAh 3.2V - 5.4A Battery Cell LiFePO4   JGNE Goldencell     Batteries and Accessories
    5  5250.1660    g  6.2246                     PVC-isolated 0.25mm2 copper cable           Unknown             Bulk Hook-up Wire
    6  3693.6541    g  4.3792                     PVC-isolated 0.14mm2 copper cable           Unknown             Bulk Hook-up Wire
    7  3307.3013    g  3.9211                                      Battery Pack PCB            PCBWay        Printed Circuit Boards
    8  3174.9211    g  3.7642                                     Choc Brown Switch             Kailh              Tactile Switches
    9  2835.9114    g  3.3623 Ultra High Speed PCIe Gen3 x4 NVMe 1.3 SSD Controller    Silicon Motion              Microcontrollers
   10  2060.4072    g  2.4428                                 Main Box Al6061 Black           Neuform                          Case
   11  1685.4252    g  1.9982                                           Screen Back           Neuform                          Case
   12  1470.8776    g  1.7439                   Nitrogen8M 0.6 System On Module PCB  Boundary Devices        Printed Circuit Boards
   13  1198.7490    g  1.4212 Ethernet/RJ45 modular jack with LEDs 16.2x13.3x20.5mm             Pulse Modular / Ethernet Connectors
   14   947.1802    g  1.1230                     PVC-isolated 0.03mm2 copper cable           Unknown             Bulk Hook-up Wire
   15   864.4600    g  1.0249                                  PCB for TPS65-201A-S            Azoteq        Printed Circuit Boards
   16   823.4325    g  0.9763      Memory (DDR) socket connector with 200 positions   TE Connectivity             Memory Connectors
   16   823.4325    g  0.9763              0.6MM DDR SODIMM STD 5.2H .76AuLF 200Ckt             Molex             Memory Connectors
   18   629.3199    g  0.7461                            PCB for Transcend SSD 220S           Unknown        Printed Circuit Boards
   19   615.7630    g  0.7300            Molex 0151320502: Picolock 5 Circuit 150MM             Molex               Cables and Wire
   20   610.8932    g  0.7243                    12.5 inch a-Si TFT-LCD - LCD glass           Innolux                      Displays
   21 18263.1074    g 21.6527                                                 Other
-------------------------------------------------------------------
Top 50 resources (aside other) in device 'MNT Reform 2.0 Laptop':
 rank     amount unit   share                               name resource circularity
    1 27165.9648    g 32.2079                         Copper Ore               virgin
    2 25890.9609    g 30.6963                        Gold Ground               virgin
    3  9927.1562    g 11.7696                            Tin Ore               virgin
    4  6974.6406    g  8.2691                      Silver Ground               virgin
    5  4858.9092    g  5.7607            Bauxite (Aluminium Ore)               virgin
    6  1559.9795    g  1.8495                         Nickel Ore               virgin
    7  1013.8740    g  1.2020                                Air               virgin
    8   778.9854    g  0.9236                 Lithium (in brine)               virgin
    9   737.7661    g  0.8747        Spodumene (Lithium mineral)               virgin
   10   659.3081    g  0.7817                        Natural Gas               virgin
   11   530.4102    g  0.6289                        Silica Sand               virgin
   12   524.4767    g  0.6218                          Crude Oil               virgin
   13   482.1218    g  0.5716                               Salt               virgin
   14   427.1679    g  0.5064                           Iron Ore               virgin
   15   380.8416    g  0.4515                          Hard Coal               virgin
   16   260.6783    g  0.3091                Aluminium, recycled             recycled
   17   233.2890    g  0.2766         Zircon (Zirconium Mineral)               virgin
   18   228.4898    g  0.2709                    Rare Earths Ore               virgin
   19   224.4816    g  0.2661                       Chromium Ore               virgin
   20   198.4494    g  0.2353                              Water               virgin
   21   174.4128    g  0.2068                   Sulfur, recycled             recycled
   22   169.2497    g  0.2007                            Calcite               virgin
   23   137.5632    g  0.1631                     Phosphorus Ore               virgin
   24   117.1838    g  0.1389                          Flourspar               virgin
   25    91.3289    g  0.1083             Indium (from Zinc Ore)               virgin
   26    85.7017    g  0.1016                   Copper, recycled             recycled
   27    82.3938    g  0.0977                           Zinc Ore               virgin
   28    78.8810    g  0.0935                      Palladium Ore               virgin
   29    61.7079    g  0.0732          Magnesite (Magnesium Ore)               virgin
   30    48.2810    g  0.0572         Colemanite (Boron mineral)               virgin
   31    37.2917    g  0.0442                     Iron, recycled             recycled
   32    36.9668    g  0.0438                               Corn               virgin
   33    33.1010    g  0.0392               - Unknown Resource -               virgin
   34    25.7164    g  0.0305     Graphite (in metamorphic rock)               virgin
   35    22.6254    g  0.0268                         Cobalt Ore               virgin
   36    22.5521    g  0.0267                    Glass, recycled             recycled
   37    12.9360    g  0.0153                      Manganese Ore               virgin
   38    12.0940    g  0.0143                           Dolomite               virgin
   39     6.2332    g  0.0074                     Hard Wood (m3)               virgin
   40     6.0590    g  0.0072                       Tungsten Ore               virgin
   41     5.4885    g  0.0065 Sylvite/Potash (Potassium Mineral)               virgin
   42     4.6403    g  0.0055               Magnesium (in water)               virgin
   43     4.5793    g  0.0054            Baryte (Barium Mineral)               virgin
   44     3.2502    g  0.0039                     Zinc, recycled             recycled
   45     2.4476    g  0.0029                               Clay               virgin
   46     1.2639    g  0.0015                Magnesium, recycled             recycled
   47     0.8779    g  0.0010          Beryl (Beryllium Mineral)               virgin
   48     0.8592    g  0.0010                           Lead Ore               virgin
   49     0.6812    g  0.0008        Ilmenite (Titanium Mineral)               virgin
   50     0.5581    g  0.0007                         Sulfur Ore               virgin
   51     0.7625    g  0.0009                              Other
-------------------------------------------------------------------
Top 20 combinations of resources/locations (aside other) in device 'MNT Reform 2.0 Laptop':
 rank     amount unit   share                                           name resource circularity resource short name location region              location sub region       location short name
    1  7737.5298    g  9.1733                             Copper Ore x Chile               virgin          Copper Ore       Americas Latin America and the Caribbean                    Chile
    2  3233.4148    g  3.8334                              Copper Ore x Peru               virgin          Copper Ore       Americas Latin America and the Caribbean                     Peru
    3  3083.8977    g  3.6562                            Gold Ground x China               virgin         Gold Ground           Asia                    Eastern Asia                    China
    4  2730.0278    g  3.2366                                Tin Ore x China               virgin             Tin Ore           Asia                    Eastern Asia                    China
    5  2592.6431    g  3.0737                            Tin Ore x Indonesia               virgin             Tin Ore           Asia              South-eastern Asia                Indonesia
    6  2406.6335    g  2.8532                        Gold Ground x Australia               virgin         Gold Ground        Oceania       Australia and New Zealand                Australia
    7  2151.5527    g  2.5508               Gold Ground x Russian Federation               virgin         Gold Ground         Europe                  Eastern Europe       Russian Federation
    8  2071.3105    g  2.4557                             Copper Ore x China               virgin          Copper Ore           Asia                    Eastern Asia                    China
    9  1823.8715    g  2.1623                         Silver Ground x Mexico               virgin       Silver Ground       Americas Latin America and the Caribbean                   Mexico
   10  1737.5414    g  2.0600         Gold Ground x United States of America               virgin         Gold Ground       Americas                Northern America United States of America
   11  1702.0903    g  2.0179                              Tin Ore x Myanmar               virgin             Tin Ore           Asia              South-eastern Asia                  Myanmar
   12  1644.0183    g  1.9491 Copper Ore x Congo, Democratic Republic of the               virgin          Copper Ore         Africa              Sub-Saharan Africa               D.R. Congo
   13  1618.7297    g  1.9191          Copper Ore x United States of America               virgin          Copper Ore       Americas                Northern America United States of America
   14  1436.6698    g  1.7033                           Gold Ground x Canada               virgin         Gold Ground       Americas                Northern America                   Canada
   15  1391.7999    g  1.6501            Bauxite (Aluminium Ore) x Australia               virgin             Bauxite        Oceania       Australia and New Zealand                Australia
   16  1211.8395    g  1.4367                         Copper Ore x Australia               virgin          Copper Ore        Oceania       Australia and New Zealand                Australia
   17  1145.9164    g  1.3586                            Gold Ground x Ghana               virgin         Gold Ground         Africa              Sub-Saharan Africa                    Ghana
   18  1143.6539    g  1.3559                            Copper Ore x Zambia               virgin          Copper Ore         Africa              Sub-Saharan Africa                   Zambia
   19  1096.6729    g  1.3002                             Gold Ground x Peru               virgin         Gold Ground       Americas Latin America and the Caribbean                     Peru
   20  1085.1404    g  1.2865                           Gold Ground x Mexico               virgin         Gold Ground       Americas Latin America and the Caribbean                   Mexico
   21 41303.1250    g 48.9675                                          Other
-------------------------------------------------------------------
Top 50 locations (aside other) in device 'MNT Reform 2.0 Laptop':
 rank     amount unit   share                              name location region              location sub region
    1 10728.9277    g 12.7199                             China           Asia                    Eastern Asia
    2  8542.9922    g 10.1283                             Chile       Americas Latin America and the Caribbean
    3  6451.6499    g  7.6489                         Australia        Oceania       Australia and New Zealand
    4  5986.1260    g  7.0970                              Peru       Americas Latin America and the Caribbean
    5  5177.3579    g  6.1381                         Indonesia           Asia              South-eastern Asia
    6  4259.1157    g  5.0495                Russian Federation         Europe                  Eastern Europe
    7  4129.2109    g  4.8955          United States of America       Americas                Northern America
    8  3910.1021    g  4.6357                            Mexico       Americas Latin America and the Caribbean
    9  2523.8606    g  2.9922                            Canada       Americas                Northern America
   10  2378.9648    g  2.8204                            Brazil       Americas Latin America and the Caribbean
   11  2253.8684    g  2.6721                - Unknown Origin -             XX                              XX
   12  2223.4529    g  2.6361 Congo, Democratic Republic of the         Africa              Sub-Saharan Africa
   13  2010.0593    g  2.3831                        Kazakhstan           Asia                    Central Asia
   14  1957.1450    g  2.3203                           Myanmar           Asia              South-eastern Asia
   15  1229.8400    g  1.4581                      South Africa         Africa              Sub-Saharan Africa
   16  1175.0917    g  1.3931                            Zambia         Africa              Sub-Saharan Africa
   17  1164.3813    g  1.3805                             Ghana         Africa              Sub-Saharan Africa
   18  1097.9723    g  1.3017  Bolivia (Plurinational State of)       Americas Latin America and the Caribbean
   19  1062.6996    g  1.2599                            Guinea         Africa              Sub-Saharan Africa
   20   876.2187    g  1.0388                            Poland         Europe                  Eastern Europe
   21   797.2280    g  0.9452                         Argentina       Americas Latin America and the Caribbean
   22   782.5895    g  0.9278                        Uzbekistan           Asia                    Central Asia
   23   752.8615    g  0.8926                             India           Asia                   Southern Asia
   24   720.9716    g  0.8548                             Sudan         Africa                 Northern Africa
   25   689.6103    g  0.8176                  Papua New Guinea        Oceania                       Melanesia
   26   598.4662    g  0.7095                          Mongolia           Asia                    Eastern Asia
   27   585.7421    g  0.6944        Iran (Islamic Republic of)           Asia                   Southern Asia
   28   585.3967    g  0.6940              - Secondary Origin -             YY                              YY
   29   503.0063    g  0.5963                       Philippines           Asia              South-eastern Asia
   30   468.9152    g  0.5559                              Mali         Africa              Sub-Saharan Africa
   31   457.4822    g  0.5424                            Turkey           Asia                    Western Asia
   32   406.7675    g  0.4823                      Burkina Faso         Africa              Sub-Saharan Africa
   33   349.6803    g  0.4146                      Saudi Arabia           Asia                    Western Asia
   34   342.6008    g  0.4062                           Nigeria         Africa              Sub-Saharan Africa
   35   333.4679    g  0.3953                          Colombia       Americas Latin America and the Caribbean
   36   319.7623    g  0.3791                            Sweden         Europe                 Northern Europe
   37   319.0553    g  0.3783      Tanzania, United Republic of         Africa              Sub-Saharan Africa
   38   316.6010    g  0.3754                          Zimbabwe         Africa              Sub-Saharan Africa
   39   313.6196    g  0.3718                             Spain         Europe                 Southern Europe
   40   309.9312    g  0.3674                Dominican Republic       Americas Latin America and the Caribbean
   41   301.6678    g  0.3576  Lao People's Democratic Republic           Asia              South-eastern Asia
   42   265.6231    g  0.3149                           Vietnam           Asia              South-eastern Asia
   43   235.2310    g  0.2789                          Bulgaria         Europe                  Eastern Europe
   44   200.6219    g  0.2379                          Malaysia           Asia              South-eastern Asia
   45   200.0380    g  0.2372                          Suriname       Americas Latin America and the Caribbean
   46   194.0170    g  0.2300                     Côte d'Ivoire         Africa              Sub-Saharan Africa
   47   185.6046    g  0.2200                        Kyrgyzstan           Asia                    Central Asia
   48   174.5242    g  0.2069                            Guyana       Americas Latin America and the Caribbean
   49   171.7258    g  0.2036                           Finland         Europe                 Northern Europe
   50   150.0443    g  0.1779                     New Caledonia        Oceania                       Melanesia
   51  3175.9624    g  3.7653                             Other
-------------------------------------------------------------------
Child labour locations level of device in device 'MNT Reform 2.0 Laptop':
 rank    amount unit    share  contribution                  name
    1 1721.7302    g 100.0000        2.0412 MNT Reform 2.0 Laptop
-------------------------------------------------------------------
Top 10 child labour locations level of parts (aside other) in device 'MNT Reform 2.0 Laptop':
 rank   amount unit   share  contribution                                                  name part manufacturer                part category
    1 256.3097    g 14.8867        0.3039                                       Motherboard PCB            PCBWay       Printed Circuit Boards
    2 224.2530    g 13.0248        0.2659                                          Keyboard PCB            PCBWay       Printed Circuit Boards
    3 147.4770    g  8.5656        0.1748                      Solder Paste Sn96.5Ag3Cu0.5 100g           Unknown Soldering Supplies and Tools
    4  90.2141    g  5.2397        0.1070                     PVC-isolated 0.25mm2 copper cable           Unknown            Bulk Hook-up Wire
    5  82.8742    g  4.8134        0.0983                                      Battery Pack PCB            PCBWay       Printed Circuit Boards
    6  82.2044    g  4.7745        0.0975 Ultra High Speed PCIe Gen3 x4 NVMe 1.3 SSD Controller    Silicon Motion             Microcontrollers
    7  63.4125    g  3.6831        0.0752                     PVC-isolated 0.14mm2 copper cable           Unknown            Bulk Hook-up Wire
    8  61.1543    g  3.5519        0.0725      18650 - 1800mAh 3.2V - 5.4A Battery Cell LiFePO4   JGNE Goldencell    Batteries and Accessories
    9  55.7987    g  3.2408        0.0662                                 Main Box Al6061 Black           Neuform                         Case
   10  51.4839    g  2.9902        0.0610                                     Choc Brown Switch             Kailh             Tactile Switches
   11 606.5543    g 35.2292        0.7191                                                 Other
-------------------------------------------------------------------
Top 10 child labour locations level of materials (aside other) in device 'MNT Reform 2.0 Laptop':
 rank   amount unit   share  contribution                 name          material cas material classification material density g cm3
    1 776.6909    g 45.1109        0.9208                 Gold             7440-57-5                  metals                   19.3
    2 455.4661    g 26.4539        0.5400               Copper             7440-50-8                  metals                   8.96
    3 158.3121    g  9.1949        0.1877                  Tin             7440-31-5                  metals                   7.31
    4 134.1610    g  7.7922        0.1591 6061 Aluminium Alloy            12604-68-1                  metals                    2.7
    5 117.8508    g  6.8449        0.1397               Silver             7440-22-4                  metals                  10.49
    6  17.4812    g  1.0153        0.0207      Stainless Steel            65997-19-5                  metals                    7.5
    7  16.3160    g  0.9477        0.0193            Aluminium             7429-90-5                  metals                    2.7
    8  10.6445    g  0.6182        0.0126            LCD Glass                                       glasses
    9   4.6279    g  0.2688        0.0055                Brass 86376-49-0;12597-71-6                  metals                    8.5
   10   4.3358    g  0.2518        0.0051        Acrylic Glass             9011-14-7                plastics                   1.18
   11  25.8502    g  1.5014        0.0306                Other
-------------------------------------------------------------------
Top 10 child labour locations level of resources (aside other) in device 'MNT Reform 2.0 Laptop':
 rank   amount unit   share  contribution                       name resource circularity
    1 776.6909    g 45.1109        0.9208                Gold Ground               virgin
    2 472.1416    g 27.4224        0.5598                 Copper Ore               virgin
    3 158.3298    g  9.1959        0.1877                    Tin Ore               virgin
    4 147.0510    g  8.5409        0.1743    Bauxite (Aluminium Ore)               virgin
    5 117.8508    g  6.8449        0.1397              Silver Ground               virgin
    6  19.5922    g  1.1379        0.0232                 Nickel Ore               virgin
    7   5.5147    g  0.3203        0.0065 Zircon (Zirconium Mineral)               virgin
    8   5.1512    g  0.2992        0.0061                  Crude Oil               virgin
    9   3.7421    g  0.2173        0.0044                Natural Gas               virgin
   10   2.3508    g  0.1365        0.0028                       Salt               virgin
   11  13.3213    g  0.7737        0.0158                      Other
-------------------------------------------------------------------
Top 10 child labour locations (aside other) in device 'MNT Reform 2.0 Laptop':
 rank   amount unit   share  contribution                              name location region              location sub region
    1 239.2591    g 13.8964        0.2837                              Peru       Americas Latin America and the Caribbean
    2 224.2373    g 13.0239        0.2658 Congo, Democratic Republic of the         Africa              Sub-Saharan Africa
    3 165.3797    g  9.6054        0.1961                            Guinea         Africa              Sub-Saharan Africa
    4 115.3093    g  6.6973        0.1367                             Ghana         Africa              Sub-Saharan Africa
    5  97.6670    g  5.6726        0.1158                            Mexico       Americas Latin America and the Caribbean
    6  91.2479    g  5.2998        0.1082                      Burkina Faso         Africa              Sub-Saharan Africa
    7  76.7000    g  4.4548        0.0909                              Mali         Africa              Sub-Saharan Africa
    8  73.0731    g  4.2442        0.0866  Bolivia (Plurinational State of)       Americas Latin America and the Caribbean
    9  69.7006    g  4.0483        0.0826                             Sudan         Africa                 Northern Africa
   10  65.5186    g  3.8054        0.0777                         Indonesia           Asia              South-eastern Asia
   11 503.6409    g 29.2520        0.5971                             Other
-------------------------------------------------------------------
Top 10 child labour locations level of combinations of parts/materials (aside other) in device 'MNT Reform 2.0 Laptop':
 rank   amount unit   share  contribution                                                         name part manufacturer                part category            part short name material cas material classification material density g cm3  material short name
    1 171.8139    g  9.9791        0.2037                                          Keyboard PCB x Gold            PCBWay       Printed Circuit Boards               PCB Keyboard    7440-57-5                  metals                   19.3                 Gold
    2 136.3290    g  7.9181        0.1616                                       Motherboard PCB x Gold            PCBWay       Printed Circuit Boards            PCB Motherboard    7440-57-5                  metals                   19.3                 Gold
    3 117.7861    g  6.8411        0.1396                                     Motherboard PCB x Copper            PCBWay       Printed Circuit Boards            PCB Motherboard    7440-50-8                  metals                   8.96               Copper
    4 108.4264    g  6.2975        0.1285                       Solder Paste Sn96.5Ag3Cu0.5 100g x Tin           Unknown Soldering Supplies and Tools               Solder Paste    7440-31-5                  metals                   7.31                  Tin
    5  82.0985    g  4.7684        0.0973                   PVC-isolated 0.25mm2 copper cable x Copper           Unknown            Bulk Hook-up Wire         Cable (pvc/copper)    7440-50-8                  metals                   8.96               Copper
    6  79.1132    g  4.5950        0.0938 Ultra High Speed PCIe Gen3 x4 NVMe 1.3 SSD Controller x Gold    Silicon Motion             Microcontrollers SSD Controller IC LFBGA473    7440-57-5                  metals                   19.3                 Gold
    7  63.4950    g  3.6878        0.0753                                      Battery Pack PCB x Gold            PCBWay       Printed Circuit Boards           PCB Battery Pack    7440-57-5                  metals                   19.3                 Gold
    8  57.0780    g  3.3151        0.0677                   PVC-isolated 0.14mm2 copper cable x Copper           Unknown            Bulk Hook-up Wire         Cable (pvc/copper)    7440-50-8                  metals                   8.96               Copper
    9  55.7987    g  3.2408        0.0662                 Main Box Al6061 Black x 6061 Aluminium Alloy           Neuform                         Case              Main Box Case   12604-68-1                  metals                    2.7 6061 Aluminium Alloy
   10  49.4815    g  2.8739        0.0587                                        Keyboard PCB x Copper            PCBWay       Printed Circuit Boards               PCB Keyboard    7440-50-8                  metals                   8.96               Copper
   11 800.3156    g 46.4831        0.9488                                                        Other
-------------------------------------------------------------------
Top 10 child labour combinations of materials/locations (aside other) in device 'MNT Reform 2.0 Laptop':
 rank   amount unit   share  contribution                                       name material cas material classification material density g cm3  material short name location region              location sub region location short name
    1 159.9449    g  9.2897        0.1896 Copper x Congo, Democratic Republic of the    7440-50-8                  metals                   8.96               Copper         Africa              Sub-Saharan Africa         D.R. Congo
    2 124.6717    g  7.2410        0.1478                              Copper x Peru    7440-50-8                  metals                   8.96               Copper       Americas Latin America and the Caribbean               Peru
    3 117.1356    g  6.8033        0.1389              6061 Aluminium Alloy x Guinea   12604-68-1                  metals                    2.7 6061 Aluminium Alloy         Africa              Sub-Saharan Africa             Guinea
    4 113.4808    g  6.5911        0.1345                               Gold x Ghana    7440-57-5                  metals                   19.3                 Gold         Africa              Sub-Saharan Africa              Ghana
    5  90.7550    g  5.2711        0.1076                        Gold x Burkina Faso    7440-57-5                  metals                   19.3                 Gold         Africa              Sub-Saharan Africa       Burkina Faso
    6  76.5764    g  4.4476        0.0908                                Gold x Mali    7440-57-5                  metals                   19.3                 Gold         Africa              Sub-Saharan Africa               Mali
    7  69.5697    g  4.0407        0.0825                               Gold x Sudan    7440-57-5                  metals                   19.3                 Gold         Africa                 Northern Africa              Sudan
    8  54.9541    g  3.1918        0.0652        Gold x Tanzania, United Republic of    7440-57-5                  metals                   19.3                 Gold         Africa              Sub-Saharan Africa           Tanzania
    9  45.5569    g  2.6460        0.0540                            Silver x Mexico    7440-22-4                  metals                  10.49               Silver       Americas Latin America and the Caribbean             Mexico
   10  43.8329    g  2.5459        0.0520                                Gold x Peru    7440-57-5                  metals                   19.3                 Gold       Americas Latin America and the Caribbean               Peru
   11 825.2581    g 47.9317        0.9784                                      Other
-------------------------------------------------------------------
Top 10 child labour combinations of resources/locations (aside other) in device 'MNT Reform 2.0 Laptop':
 rank   amount unit   share  contribution                                           name resource circularity resource short name location region              location sub region location short name
    1 165.8007    g  9.6299        0.1966 Copper Ore x Congo, Democratic Republic of the               virgin          Copper Ore         Africa              Sub-Saharan Africa         D.R. Congo
    2 134.4835    g  7.8109        0.1594               Bauxite (Aluminium Ore) x Guinea               virgin             Bauxite         Africa              Sub-Saharan Africa             Guinea
    3 129.2362    g  7.5062        0.1532                              Copper Ore x Peru               virgin          Copper Ore       Americas Latin America and the Caribbean               Peru
    4 113.4808    g  6.5911        0.1345                            Gold Ground x Ghana               virgin         Gold Ground         Africa              Sub-Saharan Africa              Ghana
    5  90.7550    g  5.2711        0.1076                     Gold Ground x Burkina Faso               virgin         Gold Ground         Africa              Sub-Saharan Africa       Burkina Faso
    6  76.5764    g  4.4476        0.0908                             Gold Ground x Mali               virgin         Gold Ground         Africa              Sub-Saharan Africa               Mali
    7  69.5697    g  4.0407        0.0825                            Gold Ground x Sudan               virgin         Gold Ground         Africa                 Northern Africa              Sudan
    8  54.9541    g  3.1918        0.0652     Gold Ground x Tanzania, United Republic of               virgin         Gold Ground         Africa              Sub-Saharan Africa           Tanzania
    9  45.5569    g  2.6460        0.0540                         Silver Ground x Mexico               virgin       Silver Ground       Americas Latin America and the Caribbean             Mexico
   10  43.8329    g  2.5459        0.0520                             Gold Ground x Peru               virgin         Gold Ground       Americas Latin America and the Caribbean               Peru
   11 797.4898    g 46.3189        0.9455                                          Other
-------------------------------------------------------------------
Top 10 child labour combinations of parts/materials/locations (aside other) in device 'MNT Reform 2.0 Laptop':
 rank    amount unit   share                                                                           name part manufacturer material classification              location sub region
    1   48.7177    g  2.8296                          Main Box Al6061 Black x 6061 Aluminium Alloy x Guinea           Neuform                  metals              Sub-Saharan Africa
    2   41.3627    g  2.4024                   Motherboard PCB x Copper x Congo, Democratic Republic of the            PCBWay                  metals              Sub-Saharan Africa
    3   39.8514    g  2.3146                                    Screen Back x 6061 Aluminium Alloy x Guinea           Neuform                  metals              Sub-Saharan Africa
    4   32.2408    g  1.8726                                                Motherboard PCB x Copper x Peru            PCBWay                  metals Latin America and the Caribbean
    5   28.8303    g  1.6745 PVC-isolated 0.25mm2 copper cable x Copper x Congo, Democratic Republic of the           Unknown                  metals              Sub-Saharan Africa
    6   25.1034    g  1.4580                                                    Keyboard PCB x Gold x Ghana            PCBWay                  metals              Sub-Saharan Africa
    7   24.5549    g  1.4262      Solder Paste Sn96.5Ag3Cu0.5 100g x Tin x Bolivia (Plurinational State of)           Unknown                  metals Latin America and the Caribbean
    8   22.4723    g  1.3052                              PVC-isolated 0.25mm2 copper cable x Copper x Peru           Unknown                  metals Latin America and the Caribbean
    9   22.4683    g  1.3050                             Solder Paste Sn96.5Ag3Cu0.5 100g x Tin x Indonesia           Unknown                  metals              South-eastern Asia
   10   20.0762    g  1.1660                                             Keyboard PCB x Gold x Burkina Faso            PCBWay                  metals              Sub-Saharan Africa
   11 1416.0581    g 82.2460                                                                          Other
-------------------------------------------------------------------
Value of percentage of “child labour locations level of device” within “locations level of device” in device 'MNT Reform 2.0 Laptop':
2.0412257
-------------------------------------------------------------------

Execution time:  18.050747632980347 seconds

Process finished with exit code 0
